…
``` r
data |>
  rename(disco = disconnective_behavior) |>
  decompose_within_between(
    group = "person",
    vars = "disco"
  ) |>
  select(person, matches("disco"))
#> # A tibble: 12,407 × 5
#>    person disco disco_grand_mean_cent…¹ disco_between_person disco_within_person
#>     <int> <dbl>                   <dbl>                <dbl>               <dbl>
#>  1      1   0                   -0.376                 0.127             -0.127 
#>  2      1   0                   -0.376                 0.127             -0.127 
#>  3      1   0                   -0.376                 0.127             -0.127 
#>  4      1   0                   -0.376                 0.127             -0.127 
#>  5      1   0.2                 -0.176                 0.127              0.0727
#>  6      1   0                   -0.376                 0.127             -0.127 
#>  7      1   0.4                  0.0239                0.127              0.273 
#>  8      1   0                   -0.376                 0.127             -0.127 
#>  9      1   0                   -0.376                 0.127             -0.127 
#> 10      1   0                   -0.376                 0.127             -0.127 
#> # ℹ 12,397 more rows
#> # ℹ abbreviated name: ¹​disco_grand_mean_centered
```
…
